id,fileName,artist,name,genre,tags,extension
S7423EFS,Nos Olvidamos - Ken-Y (Official Music Video).mp4,Ken-Y,Nos olvidamos,Regeaton,,mp4
51AU09KP,R.K.M & Ken-Y - Cuando Lo Olvides [Official Video].mp4,RKM & Ken-Y,Cuando lo dejes,Regeaton,,mp4
74A8W6NB,Yandel - Espionaje (Video Oficial).mp4,Yandel,Espionaje,Regeaton,,mp4